! XPM2
56 50 2 1
| c #000000
. c #ffffff
.|...|.|...|..|.|||||.|||..|.|...|..|||.|||.|.|||..|..|.
.|..|..|||.|.|||.|||..|...|.|..|||.|||||.|..|...|.|...|.
.|...|.|...|..|.|||||.|||..|.|...|..|||.|||.|.|||..|..|.
.|..|..|||.|.|||.|||..|...|.|..|||.|||||.|..|...|.|...|.
.|...|.|...|..|.|||||.|||..|.|...|..|||.|||.|.|||..|..|.
.|..|..|||.|.|||.|||..|...|.|..|||.|||||.|..|...|.|...|.
.|...|.|...|..|.|||||.|||..|.|...|..|||.|||.|.|||..|..|.
.|..|..|||.|.|||.|||..|...|.|..|||.|||||.|..|...|.|...|.
.|...|.|...|..|.|||||.|||..|.|...|..|||.|||.|.|||..|..|.
.|..|..|||.|.|||.|||..|...|.|..|||.|||||.|..|...|.|...|.
.|...|.|...|..|.|||||.|||..|.|...|..|||.|||.|.|||..|..|.
.|..|..|||.|.|||.|||..|...|.|..|||.|||||.|..|...|.|...|.
.|...|.|...|..|.|||||.|||..|.|...|..|||.|||.|.|||..|..|.
.|..|..|||.|.|||.|||..|...|.|..|||.|||||.|..|...|.|...|.
.|...|.|...|..|.|||||.|||..|.|...|..|||.|||.|.|||..|..|.
.|..|..|||.|.|||.|||..|...|.|..|||.|||||.|..|...|.|...|.
.|...|.|...|..|.|||||.|||..|.|...|..|||.|||.|.|||..|..|.
.|..|..|||.|.|||.|||..|...|.|..|||.|||||.|..|...|.|...|.
.|...|.|...|..|.|||||.|||..|.|...|..|||.|||.|.|||..|..|.
.|..|..|||.|.|||.|||..|...|.|..|||.|||||.|..|...|.|...|.
.|...|.|...|..|.|||||.|||..|.|...|..|||.|||.|.|||..|..|.
.|..|..|||.|.|||.|||..|...|.|..|||.|||||.|..|...|.|...|.
.|...|.|...|..|.|||||.|||..|.|...|..|||.|||.|.|||..|..|.
.|..|..|||.|.|||.|||..|...|.|..|||.|||||.|..|...|.|...|.
.|...|.|...|..|.|||||.|||..|.|...|..|||.|||.|.|||..|..|.
.|..|..|||.|.|||.|||..|...|.|..|||.|||||.|..|...|.|...|.
.|...|.|...|..|.|||||.|||..|.|...|..|||.|||.|.|||..|..|.
.|..|..|||.|.|||.|||..|...|.|..|||.|||||.|..|...|.|...|.
.|...|.|...|..|.|||||.|||..|.|...|..|||.|||.|.|||..|..|.
.|..|..|||.|.|||.|||..|...|.|..|||.|||||.|..|...|.|...|.
.|...|.|...|..|.|||||.|||..|.|...|..|||.|||.|.|||..|..|.
.|..|..|||.|.|||.|||..|...|.|..|||.|||||.|..|...|.|...|.
.|...|.|...|..|.|||||.|||..|.|...|..|||.|||.|.|||..|..|.
.|..|..|||.|.|||.|||..|...|.|..|||.|||||.|..|...|.|...|.
.|...|.|...|..|.|||||.|||..|.|...|..|||.|||.|.|||..|..|.
.|..|..|||.|.|||.|||..|...|.|..|||.|||||.|..|...|.|...|.
.|...|.|...|..|.|||||.|||..|.|...|..|||.|||.|.|||..|..|.
.|..|..|||.|.|||.|||..|...|.|..|||.|||||.|..|...|.|...|.
.|...|.|...|..|.|||||.|||..|.|...|..|||.|||.|.|||..|..|.
.|..|..|||.|.|||.|||..|...|.|..|||.|||||.|..|...|.|...|.
.|...|.|...|..|.|||||.|||..|.|...|..|||.|||.|.|||..|..|.
.|..|..|||.|.|||.|||..|...|.|..|||.|||||.|..|...|.|...|.
.|...|.|...|..|.|||||.|||..|.|...|..|||.|||.|.|||..|..|.
.|..|..|||.|.|||.|||..|...|.|..|||.|||||.|..|...|.|...|.
.|...|.|...|..|.|||||.|||..|.|...|..|||.|||.|.|||..|..|.
.|..|..|||.|.|||.|||..|...|.|..|||.|||||.|..|...|.|...|.
.|...|.|...|..|.|||||.|||..|.|...|..|||.|||.|.|||..|..|.
.|..|..|||.|.|||.|||..|...|.|..|||.|||||.|..|...|.|...|.
.|...|.|...|..|.|||||.|||..|.|...|..|||.|||.|.|||..|..|.
.|..|..|||.|.|||.|||..|...|.|..|||.|||||.|..|...|.|...|.
.|...|.|...|..|.|||||.|||..|.|...|..|||.|||.|.|||..|..|.
.|..|..|||.|.|||.|||..|...|.|..|||.|||||.|..|...|.|...|.
.|...|.|...|..|.|||||.|||..|.|...|..|||.|||.|.|||..|..|.
.|..|..|||.|.|||.|||..|...|.|..|||.|||||.|..|...|.|...|.
.|...|.|...|..|.|||||.|||..|.|...|..|||.|||.|.|||..|..|.
.|..|..|||.|.|||.|||..|...|.|..|||.|||||.|..|...|.|...|.
.|...|.|...|..|.|||||.|||..|.|...|..|||.|||.|.|||..|..|.
.|..|..|||.|.|||.|||..|...|.|..|||.|||||.|..|...|.|...|.
.|...|.|...|..|.|||||.|||..|.|...|..|||.|||.|.|||..|..|.
.|..|..|||.|.|||.|||..|...|.|..|||.|||||.|..|...|.|...|.
.|...|.|...|..|.|||||.|||..|.|...|..|||.|||.|.|||..|..|.
.|..|..|||.|.|||.|||..|...|.|..|||.|||||.|..|...|.|...|.
.|...|.|...|..|.|||||.|||..|.|...|..|||.|||.|.|||..|..|.
.|..|..|||.|.|||.|||..|...|.|..|||.|||||.|..|...|.|...|.
.|...|.|...|..|.|||||.|||..|.|...|..|||.|||.|.|||..|..|.
.|..|..|||.|.|||.|||..|...|.|..|||.|||||.|..|...|.|...|.
.|...|.|...|..|.|||||.|||..|.|...|..|||.|||.|.|||..|..|.
.|..|..|||.|.|||.|||..|...|.|..|||.|||||.|..|...|.|...|.
.|...|.|...|..|.|||||.|||..|.|...|..|||.|||.|.|||..|..|.
.|..|..|||.|.|||.|||..|...|.|..|||.|||||.|..|...|.|...|.
.|...|.|...|..|.|||||.|||..|.|...|..|||.|||.|.|||..|..|.
.|..|..|||.|.|||.|||..|...|.|..|||.|||||.|..|...|.|...|.
.|...|.|...|..|.|||||.|||..|.|...|..|||.|||.|.|||..|..|.
.|..|..|||.|.|||.|||..|...|.|..|||.|||||.|..|...|.|...|.
.|...|.|...|..|.|||||.|||..|.|...|..|||.|||.|.|||..|..|.
.|..|..|||.|.|||.|||..|...|.|..|||.|||||.|..|...|.|...|.
.|...|.|...|..|.|||||.|||..|.|...|..|||.|||.|.|||..|..|.
.|..|..|||.|.|||.|||..|...|.|..|||.|||||.|..|...|.|...|.
.|...|.|...|..|.|||||.|||..|.|...|..|||.|||.|.|||..|..|.
.|..|..|||.|.|||.|||..|...|.|..|||.|||||.|..|...|.|...|.
.|...|.|...|..|.|||||.|||..|.|...|..|||.|||.|.|||..|..|.
.|..|..|||.|.|||.|||..|...|.|..|||.|||||.|..|...|.|...|.
.|...|.|...|..|.|||||.|||..|.|...|..|||.|||.|.|||..|..|.
.|..|..|||.|.|||.|||..|...|.|..|||.|||||.|..|...|.|...|.
.|...|.|...|..|.|||||.|||..|.|...|..|||.|||.|.|||..|..|.
.|..|..|||.|.|||.|||..|...|.|..|||.|||||.|..|...|.|...|.
.|...|.|...|..|.|||||.|||..|.|...|..|||.|||.|.|||..|..|.
.|..|..|||.|.|||.|||..|...|.|..|||.|||||.|..|...|.|...|.
.|...|.|...|..|.|||||.|||..|.|...|..|||.|||.|.|||..|..|.
.|..|..|||.|.|||.|||..|...|.|..|||.|||||.|..|...|.|...|.
.|...|.|...|..|.|||||.|||..|.|...|..|||.|||.|.|||..|..|.
.|..|..|||.|.|||.|||..|...|.|..|||.|||||.|..|...|.|...|.
.|...|.|...|..|.|||||.|||..|.|...|..|||.|||.|.|||..|..|.
.|..|..|||.|.|||.|||..|...|.|..|||.|||||.|..|...|.|...|.
.|...|.|...|..|.|||||.|||..|.|...|..|||.|||.|.|||..|..|.
.|..|..|||.|.|||.|||..|...|.|..|||.|||||.|..|...|.|...|.
.|...|.|...|..|.|||||.|||..|.|...|..|||.|||.|.|||..|..|.
.|..|..|||.|.|||.|||..|...|.|..|||.|||||.|..|...|.|...|.
.|...|.|...|..|.|||||.|||..|.|...|..|||.|||.|.|||..|..|.
.|..|..|||.|.|||.|||..|...|.|..|||.|||||.|..|...|.|...|.

